examples/analog_negative.vcd
$date
   Generated VCD file with negative analog signals
$end
$version
   Surfer example
$end
$timescale 1fs $end
$scope module top $end
$var integer 32 ! sine_int_neg $end
$var real 64 " cosine_real_neg $end
$upscope $end
$enddefinitions $end
$dumpvars
b00000000000000000000000000000000 !
r-1000.0 "
$end
#0
b00000000000000000000000000000000 !
r-1000.0 "
#100000
b11111111111111111111110000011010 !
r-980.0665778412416 "
#200000
b11111111111111111111100000111110 !
r-921.0609940028851 "
#300000
b11111111111111111111010001110101 !
r-825.3356149096784 "
#400000
b11111111111111111111000011001010 !
r-696.7067093471654 "
#500000
b11111111111111111110110101000110 !
r-540.3023058681398 "
#600000
b11111111111111111110100111110010 !
r-362.3577544766736 "
#700000
b11111111111111111110011011010110 !
r-169.96714290024104 "
#800000
b11111111111111111110001111111011 !
r29.199522301288816 "
#900000
b11111111111111111110000101100111 !
r227.2020946930871 "
#1000000
b11111111111111111101111100100010 !
r416.1468365471424 "
#1100000
b11111111111111111101110100110000 !
r588.5011172553458 "
#1200000
b11111111111111111101101110011000 !
r737.3937155412455 "
#1300000
b11111111111111111101101001011101 !
r856.8887533689473 "
#1400000
b11111111111111111101100110000010 !
r942.222340668658 "
#1500000
b11111111111111111101100100001010 !
r989.9924966004454 "
#1600000
b11111111111111111101100011110101 !
r998.2947757947531 "
#1700000
b11111111111111111101100101000100 !
r966.7981925794611 "
#1800000
b11111111111111111101100111110110 !
r896.758416334147 "
#1900000
b11111111111111111101101100001001 !
r790.9677119144168 "
#2000000
b11111111111111111101110001111100 !
r653.6436208636119 "
#2100000
b11111111111111111101111001001000 !
r490.2608213406994 "
#2200000
b11111111111111111110000001101100 !
r307.33286997841935 "
#2300000
b11111111111111111110001011011111 !
r112.15252693505487 "
#2400000
b11111111111111111110010110011110 !
r-87.49898343944639 "
#2500000
b11111111111111111110100010100000 !
r-283.66218546322625 "
#2600000
b11111111111111111110101111011101 !
r-468.5166713003771 "
#2700000
b11111111111111111110111101001111 !
r-634.6928759426347 "
#2800000
b11111111111111111111001011101011 !
r-775.5658785102496 "
#2900000
b11111111111111111111011010101000 !
r-885.5195169413189 "
#3000000
b11111111111111111111101001111101 !
r-960.1702866503659 "
#3100000
b11111111111111111111111001100001 !
r-996.5420970232175 "
#3200000
b00000000000000000000001001000111 !
r-993.1849187581926 "
#3300000
b00000000000000000000011000101001 !
r-950.2325919585296 "
#3400000
b00000000000000000000100111111011 !
r-869.3974903498253 "
#3500000
b00000000000000000000110110110011 !
r-753.9022543433045 "
#3600000
b00000000000000000001000101001001 !
r-608.3513145322546 "
#3700000
b00000000000000000001010010110010 !
r-438.54732757439035 "
#3800000
b00000000000000000001011111100110 !
r-251.2598425822557 "
#3900000
b00000000000000000001101011011101 !
r-53.95542056264975 "
#4000000
b00000000000000000001110110010000 !
r145.50003380861355 "
#4100000
b00000000000000000001111111110110 !
r339.1548609838345 "
#4200000
b00000000000000000010001000001011 !
r519.2886541166856 "
#4300000
b00000000000000000010001111001001 !
r678.7200473200124 "
#4400000
b00000000000000000010010100101100 !
r811.093014061656 "
#4500000
b00000000000000000010011000101111 !
r911.1302618846769 "
#4600000
b00000000000000000010011011010000 !
r974.8436214041636 "
#4700000
b00000000000000000010011100001111 !
r999.6930420352065 "
#4800000
b00000000000000000010011011101001 !
r984.687855794127 "
#4900000
b00000000000000000010011001100000 !
r930.4262721047533 "
#5000000
b00000000000000000010010101110101 !
r839.0715290764524 "
#5100000
b00000000000000000010010000101010 !
r714.2656520272003 "
#5200000
b00000000000000000010001010000010 !
r560.9842574272288 "
#5300000
b00000000000000000010000010000010 !
r385.3381907718296 "
#5400000
b00000000000000000001111000101111 !
r194.3299064553348 "
#5500000
b00000000000000000001101110001111 !
r-4.425697988050786 "
#5600000
b00000000000000000001100010101000 !
r-203.0048638187504 "
#5700000
b00000000000000000001010110000010 !
r-393.49086634789086 "
#5800000
b00000000000000000001001000100110 !
r-568.2896297679736 "
#5900000
b00000000000000000000111010011010 !
r-720.4324789908387 "
#6000000
b00000000000000000000101011101010 !
r-843.8539587324922 "
#6100000
b00000000000000000000011100011101 !
r-933.6336440746373 "
#6200000
b00000000000000000000001100111110 !
r-986.1923022788636 "
#6300000
b11111111111111111111111101011000 !
r-999.4345855010047 "
#6400000
b11111111111111111111101101110011 !
r-972.8325656974354 "
#6500000
b11111111111111111111011110011001 !
r-907.4467814501962 "
#6600000
b11111111111111111111001111010101 !
r-805.8839576404507 "
#6700000
b11111111111111111111000000110000 !
r-672.1930835534681 "
#6800000
b11111111111111111110110010110011 !
r-511.703992453149 "
#6900000
b11111111111111111110100101101000 !
r-330.81487794904695 "
#7000000
b11111111111111111110011001010111 !
r-136.7372182078336 "
#7100000
b11111111111111111110001110000111 !
r62.79172292408176 "
#7200000
b11111111111111111110000100000000 !
r259.81735621375583 "
#7300000
b11111111111111111101111011001000 !
r446.4848914122656 "
#7400000
b11111111111111111101110011100101 !
r615.3524829547208 "
#7500000
b11111111111111111101101101011101 !
r759.6879128588213 "
#7600000
b11111111111111111101101000110001 !
r873.7369830110802 "
#7700000
b11111111111111111101100101100111 !
r952.9529168871803 "
#7800000
b11111111111111111101100011111111 !
r994.1776251838152 "
#7900000
b11111111111111111101100011111011 !
r995.7676088732885 "
#8000000
b11111111111111111101100101011011 !
r957.6594803233846 "
#8100000
b11111111111111111101101000011110 !
r881.3724903622347 "
#8200000
b11111111111111111101101101000001 !
r769.9479605420717 "
#8300000
b11111111111111111101110011000011 !
r627.828035246386 "
#8400000
b11111111111111111101111010011111 !
r460.6785874113625 "
#8500000
b11111111111111111110000011010000 !
r275.16333805159695 "
#8600000
b11111111111111111110001101010001 !
r78.67819473184015 "
#8700000
b11111111111111111110011000011011 !
r-120.94359992847414 "
#8800000
b11111111111111111110100100100111 !
r-315.7437549192433 "
#8900000
b11111111111111111110110001101110 !
r-497.95620278841545 "
#9000000
b11111111111111111110111111100111 !
r-660.3167082440801 "
#9100000
b11111111111111111111001110001010 !
r-796.3524702919232 "
#9200000
b11111111111111111111011101001100 !
r-900.6401723847684 "
#9300000
b11111111111111111111101100100100 !
r-969.0221929390499 "
#9400000
b11111111111111111111111100001001 !
r-998.7723565872102 "
#9500000
b00000000000000000000001011101111 !
r-988.7046181866692 "
#9600000
b00000000000000000000011011001111 !
r-939.2203466968708 "
#9700000
b00000000000000000000101010011101 !
r-852.2923238654644 "
#9800000
b00000000000000000000111001010000 !
r-731.3860956454968 "
#9900000
b00000000000000000001000111011111 !
r-581.3218118144357 "
