examples/analog.vcd
$date
    Sun Jul 20 15:38:03 2025
$end
$version
    Python Sinewave VCD Generator
$end
$timescale
    1ps
$end
$scope module top $end
$var integer 32 ! clk_cnt $end
$var real 64 " sine_real $end
$var reg 8 # sine_4state $end
$var reg 1024 @ reg1024 $end
$upscope $end
$enddefinitions $end
#0
$dumpvars
b0 !
b0 @
r0.5877852522924731 "
b11111001 #
$end
#1000
b11111111111111111111111111111111111111111111111111111111111111111111111111111111111111111111111111111111111111111111111111111111 @
b1 !
r0.8090169943749475 "
#2000
b1111111111111111111111111111111111111111111111111111111111111111111111111111111111111111111111111111111111111111111111111111111111111111111111111111111111111111111111111111111111111111111111111111111111111111111111111111111111111111111111111111111111111111 @
b10 !
r0.9510565162951536 "
b11001010 #
#3000
b11111111111111111111111111111111111111111111111111111111111111111111111111111111111111111111111111111111111111111111111111111111111111111111111111111111111111111111111111111111111111111111111111111111111111111111111111111111111111111111111111111111111111111111111111111111111111111111111111111111111111111111111111111111111111111111111111111111111111111111111111111111111111111111111111111111111111111111111111111111111111111111111111111111111111111111111111111111111111111111111111111111111111111111111111111111 @
b11 !
r1 "
b10000000 #
#4000
b1111111111111111111111111111111111111111111111111111111111111111111111111111111111111111111111111111111111111111111111111111111111111111111111111111111111111111111111111111111111111111111111111111111111111111111111111111111111111111111111111111111111111111111111111111111111111111111111111111111111111111111111111111111111111111111111111111111111111111111111111111111111111111111111111111111111111111111111111111111111111111111111111111111111111111111111111111111111111111111111111111111111111111111111111111111111111111111111111111111111111111111111111111111111111111111111111111111111111111111111111111111111111111111111111111111111111111111111111111111111111111111111111111111111111111111111111111111111111111111111111111111111111111111111111111111111111111111111111111111111111111111111111111111111111111111111111111111111111111111111111111111111111111111111111111111111111111111111111111111111111111111111111111111111111111111111111111111111111111111111111111111111111111111111111111111111111111111111111111111111111111 @
b100 !
r0.9510565162951536 "
b110101 #
#5000
b11111111111111111111111111111111111111111111111111111111111111111111111111111111111111111111111111111111111111111111111111111111111111111111111111111111111111111111111111111111111111111111111111111111111111111111111111111111111111111111111111111111111111111111111111111111111111111111111111111111111111111111111111111111111111111111111111111111111111111111111111111111111111111111111111111111111111111111111111111111111111111111111111111111111111111111111111111111111111111111111111111111111111111111111111111111 @
b101 !
r0.8090169943749475 "
b110 #
#6000
b110 !
r0.5877852522924734 "
#7000
b11111111111111111111111111111111111111111111111111111111111111111111111111111111111111111111111111111111111111111111111111111111 @
b111 !
r0.3090169943749479 "
b110101 #
#8000
b1000 !
r2.220446049250313e-16 "
b1111111 #
#9000
b1111111111111111111111111111111111111111111111111111111111111111 @
b1001 !
r-0.3090169943749469 "
b11001010 #
#10000
b1010 !
r-0.587785252292473 "
b11111001 #
#11000
b1011 !
r-0.8090169943749473 "
#12000
b1100 !
r-0.9510565162951535 "
b11001010 #
#13000
b1101 !
r-1 "
b10000000 #
#14000
b1110 !
r-0.9510565162951539 "
b110101 #
#15000
b1111 !
r-0.8090169943749481 "
b110 #
#16000
b10000 !
r-0.5877852522924734 "
#17000
b10001 !
r-0.3090169943749486 "
b110101 #
#18000
b10010 !
r-1.110223024625157e-15 "
b1111111 #
#19000
b10011 !
r0.3090169943749463 "
b11001010 #
#20000
b10100 !
r0.5877852522924729 "
b11111001 #
#21000
b10101 !
r0.8090169943749468 "
#22000
b10110 !
r0.9510565162951532 "
b11001010 #
#23000
b10111 !
r1 "
b10000000 #
#24000
b11000 !
r0.9510565162951536 "
b110101 #
#25000
b11001 !
r0.8090169943749488 "
b110 #
#26000
b11010 !
r0.5877852522924747 "
#27000
b11011 !
r0.3090169943749479 "
b110101 #
#28000
b11100 !
r2.220446049250313e-15 "
b1111111 #
#29000
b11101 !
r-0.3090169943749455 "
bz #
#30000
b11110 !
r-0.5877852522924714 "
#31000
b11111 !
r-0.8090169943749461 "
#32000
b100000 !
r-0.9510565162951534 "
#33000
b100001 !
r-1 "
#34000
b100010 !
r-0.9510565162951543 "
#35000
b100011 !
r-0.8090169943749477 "
#36000
b100100 !
r-0.5877852522924749 "
#37000
b100101 !
r-0.3090169943749479 "
#38000
b100110 !
r-2.220446049250313e-15 "
#39000
b100111 !
r0.3090169943749452 "
b11001010 #
#40000
b101000 !
r0.5877852522924727 "
b11111001 #
#41000
b101001 !
r0.8090169943749461 "
#42000
b101010 !
r0.9510565162951528 "
b11001010 #
#43000
b101011 !
r1 "
b10000000 #
#44000
b101100 !
r0.9510565162951543 "
b110101 #
#45000
b101101 !
r0.8090169943749488 "
b110 #
#46000
b101110 !
r0.5877852522924736 "
#47000
b101111 !
r0.3090169943749497 "
b110101 #
#48000
b110000 !
r2.442490654175344e-15 "
b1111111 #
#49000
b110001 !
r-0.3090169943749451 "
b11001010 #
#50000
b110010 !
r-0.5877852522924726 "
b11111001 #
#51000
b110011 !
r-0.809016994374946 "
#52000
b110100 !
r-0.9510565162951523 "
b11001010 #
#53000
b110101 !
r-1 "
b10000000 #
#54000
b110110 !
r-0.9510565162951538 "
b110101 #
#55000
b110111 !
r-0.8090169943749489 "
b110 #
#56000
b111000 !
r-0.5877852522924766 "
#57000
b111001 !
r-0.3090169943749498 "
b110101 #
#58000
b111010 !
r-4.329869796038111e-15 "
b1111111 #
#59000
b111011 !
r0.309016994374945 "
b11001010 #
#60000
b111100 !
r0.5877852522924698 "
b11111001 #
#61000
b111101 !
r0.8090169943749459 "
#62000
b111110 !
r0.9510565162951523 "
b11001010 #
#63000
b111111 !
r1 "
b10000000 #
#64000
b1000000 !
r0.9510565162951539 "
b110101 #
#65000
b1000001 !
r0.809016994374949 "
b110 #
#66000
b1000010 !
r0.5877852522924767 "
#67000
b1000011 !
r0.3090169943749499 "
b110101 #
#68000
b1000100 !
r4.440892098500626e-15 "
bx #
#69000
b1000101 !
r-0.3090169943749449 "
#70000
b1000110 !
r-0.5877852522924725 "
#71000
b1000111 !
r-0.8090169943749459 "
#72000
b1001000 !
r-0.9510565162951522 "
#73000
b1001001 !
r-1 "
#74000
b1001010 !
r-0.9510565162951539 "
#75000
b1001011 !
r-0.809016994374949 "
#76000
b1001100 !
r-0.5877852522924768 "
#77000
b1001101 !
r-0.3090169943749501 "
#78000
b1001110 !
r-4.551914400963142e-15 "
b1111111 #
#79000
b1001111 !
r0.3090169943749415 "
b11001010 #
#80000
b1010000 !
r0.5877852522924725 "
b11111001 #
#81000
b1010001 !
r0.8090169943749457 "
#82000
b1010010 !
r0.9510565162951523 "
b11001010 #
#83000
b1010011 !
r1 "
b10000000 #
#84000
b1010100 !
r0.951056516295155 "
b110101 #
#85000
b1010101 !
r0.8090169943749512 "
b110 #
#86000
b1010110 !
r0.587785252292474 "
#87000
b1010111 !
r0.3090169943749501 "
b110101 #
#88000
b1011000 !
r4.662936703425657e-15 "
b1111111 #
#89000
b1011001 !
r-0.3090169943749447 "
b11001010 #
#90000
b1011010 !
r-0.5877852522924694 "
b11111001 #
#91000
b1011011 !
r-0.8090169943749437 "
#92000
b1011100 !
r-0.9510565162951532 "
b11001010 #
#93000
b1011101 !
r-1 "
b10000000 #
#94000
b1011110 !
r-0.9510565162951551 "
b110101 #
#95000
b1011111 !
r-0.8090169943749491 "
b110 #
#96000
b1100000 !
r-0.587785252292477 "
#97000
b1100001 !
r-0.3090169943749537 "
b110101 #
#98000
b1100010 !
r-1.221245327087672e-15 "
b1111111 #
#99000
b1100011 !
r0.3090169943749446 "
b11001010 #
#100000
b1100100 !
r0.5877852522924694 "
b11111001 #
