examples/analog_ieee_inf_nan.vcd
$timescale
    1ps
$end
$scope module top $end
$var reg 32 ! reg32 $end
$var reg 64 @ reg64 $end
$upscope $end
$enddefinitions $end
#0
$dumpvars
b00000000000000000000000000000000 !
b0000000000000000000000000000000000000000000000000000000000000000 @
$end
#1000
b1111111110000000000000000000000 !
b111111111111000000000000000000000000000000000000000000000000000 @
#2000
b1111111101000000000000000000000 !
b111111111110100000000000000000000000000000000000000000000000000 @
#3000
b01111111100000000000000000000000 !
b0111111111110000000000000000000000000000000000000000000000000000 @
#4000
b11111111100000000000000000000000 !
b1111111111110000000000000000000000000000000000000000000000000000 @
#5000
b11000110000111000100000000000000 !
b0100000000100100000000000000000000000000000000000000000000000000 @
#6000
b01000001101000000000000000000000 !
#7000
b01000001111100000000000000000000 !
