examples/event.vcd
$date
    Sun Jul 20 17:40:20 2025
$end
$version
    Python Sinewave VCD Generator
$end
$timescale
    1ps
$end
$scope module top $end
$var integer 32 ! clk_cnt $end
$var event 1 " events $end
$upscope $end
$enddefinitions $end
#0
$dumpvars
b0 !
$end
#1000
b1 !
#2000
1"
b10 !
#3000
b11 !
#4000
b100 !
#5000
b101 !
#6000
1"
b110 !
#7000
b111 !
#8000
b1000 !
1"
#9000
b1001 !
#10000
b1010 !
#11000
b1011 !
#12000
b1100 !
#13000
b1101 !
#14000
b1110 !
#15000
b1111 !
#16000
b10000 !
1"
#17000
b10001 !
#18000
b10010 !
#19000
b10011 !
#20000
b10100 !
#21000
b10101 !
#22000
b10110 !
#23000
b10111 !
#24000
b11000 !
1"
#25000
b11001 !
#26000
b11010 !
#27000
b11011 !
#28000
b11100 !
#29000
b11101 !
#30000
b11110 !
#31000
b11111 !
#32000
b100000 !
1"
#33000
b100001 !
#34000
b100010 !
#35000
b100011 !
#36000
b100100 !
#37000
b100101 !
#38000
b100110 !
#39000
b100111 !
#40000
b101000 !
1"
#41000
b101001 !
#42000
b101010 !
#43000
b101011 !
#44000
b101100 !
#45000
b101101 !
#46000
b101110 !
#47000
b101111 !
#48000
b110000 !
1"
#49000
b110001 !
#50000
b110010 !
#51000
b110011 !
#52000
b110100 !
#53000
b110101 !
#54000
b110110 !
#55000
b110111 !
#56000
b111000 !
1"
#57000
b111001 !
#58000
b111010 !
#59000
b111011 !
#60000
b111100 !
#61000
b111101 !
#62000
b111110 !
#63000
b111111 !
#64000
b1000000 !
1"
#65000
b1000001 !
#66000
b1000010 !
#67000
b1000011 !
#68000
b1000100 !
#69000
b1000101 !
#70000
b1000110 !
#71000
b1000111 !
#72000
b1001000 !
1"
