examples/pulses.vcd
$date
    Sun Jul 20 15:38:03 2025
$end
$version
    Python Sinewave VCD Generator
$end
$timescale
    1ps
$end
$scope module top $end
$var integer 32 ! clk_cnt $end
$upscope $end
$enddefinitions $end
#0
$dumpvars
b0 !
$end
#1000
b1 !
#2000
b1000000 !
#3000
b0000000 !
#1000000
b10000000 !
#1100000
b00000000 !
#1200000
b10000000 !
#1200100
b00000000 !
#1800000
b10000000 !
#1800010
b00000000 !
#2000000
b100000000 !
#2000001
b1000000000 !
#2000005
b10000000000 !
#2000007
b10000000 !
#2000010
b00000000 !
#3000000
b10000000000 !
#3100000
b0000000 !
#4100000
b0000001 !
